Invoice
ABC17122213


SELLER
Karolis
Kalvariju g. 125


CUSTOMER
Iki
null
Vilnius



Bandele 1 10.0  0.14   1.4  Valid until: 2017-12-24
Bandele 2 110.0  0.16   17.6  Valid until: 2017-12-23

TOTAL: 19.0
VAT: 3.99
TOTAL WITH VAT: 22.99