C:\Projects\vcs\bakery\src\main\java\com\company\bakery\controller\CustomerController.java
C:\Projects\vcs\bakery\src\main\java\com\company\bakery\documents\Recipe.java
C:\Projects\vcs\bakery\src\main\java\com\company\bakery\dto\Ingredients.java
C:\Projects\vcs\bakery\src\main\java\com\company\bakery\documents\Order.java
C:\Projects\vcs\bakery\src\main\java\com\company\bakery\service\CustomerService.java
C:\Projects\vcs\bakery\src\main\java\com\company\bakery\service\InvoiceService.java
C:\Projects\vcs\bakery\src\main\java\com\company\bakery\service\RecipeService.java
C:\Projects\vcs\bakery\src\main\java\com\company\bakery\BakeryApplication.java
C:\Projects\vcs\bakery\src\main\java\com\company\bakery\controller\RecipeController.java
C:\Projects\vcs\bakery\src\main\java\com\company\bakery\documents\Supplier.java
C:\Projects\vcs\bakery\src\main\java\com\company\bakery\utils\CostUtils.java
C:\Projects\vcs\bakery\src\main\java\com\company\bakery\documents\Customer.java
C:\Projects\vcs\bakery\src\main\java\com\company\bakery\documents\Invoice.java
C:\Projects\vcs\bakery\src\main\java\com\company\bakery\repository\InvoiceRepository.java
C:\Projects\vcs\bakery\src\main\java\com\company\bakery\controller\OrderController.java
C:\Projects\vcs\bakery\src\main\java\com\company\bakery\controller\InvoiceController.java
C:\Projects\vcs\bakery\src\main\java\com\company\bakery\service\OrderService.java
C:\Projects\vcs\bakery\src\main\java\com\company\bakery\utils\ListUtils.java
C:\Projects\vcs\bakery\src\main\java\com\company\bakery\repository\RecipeRepository.java
C:\Projects\vcs\bakery\src\main\java\com\company\bakery\repository\CustomerRepository.java
C:\Projects\vcs\bakery\src\main\java\com\company\bakery\repository\OrderRepository.java
C:\Projects\vcs\bakery\src\main\java\com\company\bakery\dto\Product.java
